{"data": {"hits": [{"id": "05ba3e8b-9ff0-4318-aac8-c09662571640", "cases": [{"project": {"project_id": "HCMI-CMDC"}, "samples": [{"sample_type": "FFPE Scrolls"}, {"sample_type": "Next Generation Cancer Model"}]}], "file_name": "681bc0f8-9444-488c-8c57-12c87f1474d2.wxs.VarScan2.aliquot.maf.gz"}, {"id": "cba34e67-ffb3-4c4f-9e7f-63cfb5c8c73e", "cases": [{"project": {"project_id": "HCMI-CMDC"}, "samples": [{"sample_type": "Next Generation Cancer Model"}]}], "file_name": "5c5ae585-fe9d-4929-933b-a6500a88c862_noid_Grn.idat"}, {"id": "2420f1f4-21fc-4c19-a789-ec33231cfa37", "cases": [{"project": {"project_id": "HCMI-CMDC"}, "samples": [{"sample_type": "FFPE Scrolls"}]}], "file_name": "b54e844d-ef9f-42b5-9e74-da77326617c7.rna_seq.chimeric.gdc_realn.bam"}, {"id": "03ad8c97-6783-4dac-aa3f-597a1308cf4f", "cases": [{"project": {"project_id": "HCMI-CMDC"}, "samples": [{"sample_type": "FFPE Scrolls"}, {"sample_type": "Next Generation Cancer Model"}]}], "file_name": "54e48529-7cd2-460b-a7db-495d99598542.wgs.BRASS.raw_structural_variation.vcf.gz"}, {"id": "e6680926-a9b4-481e-a22c-55bf3fa57a68", "cases": [{"project": {"project_id": "HCMI-CMDC"}, "samples": [{"sample_type": "FFPE Scrolls"}]}], "file_name": "7df387f8-6da8-402e-83a9-36d038848651_wxs_gdc_realn.bam"}, {"id": "c55f6dfa-159c-40a2-a2e7-b5833931c070", "cases": [{"project": {"project_id": "HCMI-CMDC"}, "samples": [{"sample_type": "FFPE Scrolls"}, {"sample_type": "FFPE Scrolls"}]}], "file_name": "1289b406-41ff-445e-93c4-075d0a2edb25.wgs.sanger_raw_pindel.raw_somatic_mutation.vcf.gz"}, {"id": "3cbf107e-98b3-4100-a5a3-f369577b7c42", "cases": [{"project": {"project_id": "HCMI-CMDC"}, "samples": [{"sample_type": "FFPE Scrolls"}, {"sample_type": "Next Generation Cancer Model"}]}], "file_name": "ef13f75f-8ad7-4b6f-bdab-8760b9cd2ac8.wxs.MuTect2.aliquot.maf.gz"}, {"id": "e289a6d4-62ca-4c5b-b7f2-5cc8b33cbfab", "cases": [{"project": {"project_id": "HCMI-CMDC"}, "samples": [{"sample_type": "FFPE Scrolls"}, {"sample_type": "Next Generation Cancer Model"}]}], "file_name": "HCMI-CMDC.605450c1-bdce-43d4-80ff-f9cab284cc28.wgs.tumor_normal.gatk4_mutect2.raw_somatic_mutation.vcf.gz"}, {"id": "dee3fb8b-f564-4cc7-81b4-440ad0f81a43", "cases": [{"project": {"project_id": "HCMI-CMDC"}}], "file_name": "HCM-STAN-0846-C20.json"}, {"id": "73c96781-329e-44cc-a3d5-c4e8da98c861", "cases": [{"project": {"project_id": "HCMI-CMDC"}, "samples": [{"sample_type": "Next Generation Cancer Model"}]}], "file_name": "50c0ad9f-bfff-4b30-a00d-61d94d48c27e_mirnaseq_gdc_realn.bam"}, {"id": "9d45f14f-4077-41c9-b70b-62bbb251c3fb", "cases": [{"project": {"project_id": "HCMI-CMDC"}, "samples": [{"sample_type": "FFPE Scrolls"}, {"sample_type": "FFPE Scrolls"}]}], "file_name": "HCMI-CMDC.bb21d944-d5d5-4620-8c71-300f84aa90de.wxs.mutect2.raw_somatic_mutation.vcf.gz"}, {"id": "6f15f892-2bb2-4ccd-96de-cb22f945828c", "cases": [{"project": {"project_id": "HCMI-CMDC"}, "samples": [{"sample_type": "FFPE Scrolls"}]}], "file_name": "d47035d4-1d41-4ce6-844b-5acb049931f3_noid_Grn.idat"}, {"id": "ffb0c679-11f3-4cd9-8d86-f7856d10d537", "cases": [{"project": {"project_id": "HCMI-CMDC"}, "samples": [{"sample_type": "FFPE Scrolls"}, {"sample_type": "FFPE Scrolls"}]}], "file_name": "HCMI-CMDC.bb21d944-d5d5-4620-8c71-300f84aa90de.wxs.muse.raw_somatic_mutation.vcf.gz"}, {"id": "1a71145d-b7a9-4324-a608-fb9023970990", "cases": [{"project": {"project_id": "HCMI-CMDC"}, "samples": [{"sample_type": "FFPE Scrolls"}]}], "file_name": "HCM-STAN-0846-C20-11D-S1-HE.C37FA733-2832-4B11-8367-14547D2633B8.svs"}, {"id": "a53a7040-d734-4037-ab50-cfb4d58c915b", "cases": [{"project": {"project_id": "HCMI-CMDC"}, "samples": [{"sample_type": "FFPE Scrolls"}, {"sample_type": "Next Generation Cancer Model"}]}], "file_name": "HCMI_CMDC.f964f887-c79d-454b-8049-e6468c84109b.wxs.VarScan2.somatic_annotation.vcf.gz"}, {"id": "0784642c-cd89-4fd2-9bb5-22c59aa01dd6", "cases": [{"project": {"project_id": "HCMI-CMDC"}, "samples": [{"sample_type": "FFPE Scrolls"}, {"sample_type": "Next Generation Cancer Model"}]}], "file_name": "c8336d44-0a9b-4ec6-a9dc-90ebb0a4ea12.wgs.ASCAT.gene_level.copy_number_variation.tsv"}, {"id": "becdc2ba-16f4-4ff3-96fd-4bfbf201b4a3", "cases": [{"project": {"project_id": "HCMI-CMDC"}, "samples": [{"sample_type": "FFPE Scrolls"}, {"sample_type": "FFPE Scrolls"}]}], "file_name": "HCMI-CMDC.57341716-b6de-437e-ac15-701847924b64.wgs.tumor_normal.gatk4_mutect2.raw_somatic_mutation.vcf.gz"}, {"id": "02434abc-2a1e-4ae2-9ae3-60d3ac1de0f3", "cases": [{"project": {"project_id": "HCMI-CMDC"}, "samples": [{"sample_type": "Next Generation Cancer Model"}]}], "file_name": "2aab05fb-874d-487f-91c8-08b590753414.rna_seq.star_splice_junctions.tsv.gz"}, {"id": "db58c3e8-879c-406d-a37a-ac31d4100b3e", "cases": [{"project": {"project_id": "HCMI-CMDC"}, "samples": [{"sample_type": "FFPE Scrolls"}, {"sample_type": "FFPE Scrolls"}]}], "file_name": "1289b406-41ff-445e-93c4-075d0a2edb25.wgs.ASCAT.copy_number_variation.seg.txt"}, {"id": "df014fb5-39f4-4d3c-8ec5-c58ebd9ae05c", "cases": [{"project": {"project_id": "HCMI-CMDC"}, "samples": [{"sample_type": "Next Generation Cancer Model"}]}], "file_name": "HCMI-CMDC.3a4e45b8-0822-4b9c-990a-fe1d217d8e40.star_fusion.rna_fusion.bedpe"}, {"id": "c4f662f6-561b-44cd-a18c-f6b073f37f51", "cases": [{"project": {"project_id": "HCMI-CMDC"}, "samples": [{"sample_type": "FFPE Scrolls"}]}], "file_name": "b54e844d-ef9f-42b5-9e74-da77326617c7.rna_seq.transcriptome.gdc_realn.bam"}, {"id": "30c001b2-7a16-4d81-b6c4-d97c6763e3e2", "cases": [{"project": {"project_id": "HCMI-CMDC"}, "samples": [{"sample_type": "Next Generation Cancer Model"}]}], "file_name": "adefdaeb-2e96-4f41-a37b-2118ba52c3e6.mirnaseq.mirnas.quantification.txt"}, {"id": "67eceb97-a4da-4bf6-8eea-8af498f4146e", "cases": [{"project": {"project_id": "HCMI-CMDC"}, "samples": [{"sample_type": "Next Generation Cancer Model"}]}], "file_name": "HCM-STAN-0846-C20-85A-01D-A937-36.WholeGenome.RP-1765.bam"}, {"id": "860ba81a-f1ca-46bf-8d6f-c6f48dc84b6c", "cases": [{"project": {"project_id": "HCMI-CMDC"}, "samples": [{"sample_type": "FFPE Scrolls"}, {"sample_type": "Next Generation Cancer Model"}]}], "file_name": "HCMI-CMDC.34348785-bed6-457e-82ad-4d2f31395f45.wxs.mutect2.raw_somatic_mutation.vcf.gz"}, {"id": "01465a39-94b6-4ddc-81b7-73465f0f52f8", "cases": [{"project": {"project_id": "HCMI-CMDC"}, "samples": [{"sample_type": "FFPE Scrolls"}, {"sample_type": "FFPE Scrolls"}]}], "file_name": "HCMI-CMDC.bb21d944-d5d5-4620-8c71-300f84aa90de.wxs.varscan2.raw_somatic_mutation.vcf.gz"}, {"id": "b8bbccde-fe6e-49e2-a5e9-77ba784bdb27", "cases": [{"project": {"project_id": "HCMI-CMDC"}, "samples": [{"sample_type": "FFPE Scrolls"}, {"sample_type": "Next Generation Cancer Model"}]}], "file_name": "54e48529-7cd2-460b-a7db-495d99598542.wgs.ASCAT.copy_number_variation.seg.txt"}, {"id": "6f438b4c-7655-450c-863a-6a5f4ca82262", "cases": [{"project": {"project_id": "HCMI-CMDC"}, "samples": [{"sample_type": "FFPE Scrolls"}, {"sample_type": "FFPE Scrolls"}]}], "file_name": "HCMI_CMDC.37903976-631c-4764-b50a-c0c5095d2c80.wxs.MuSE.somatic_annotation.vcf.gz"}, {"id": "8cd4a894-464f-434e-b894-7a099e1e9d63", "cases": [{"project": {"project_id": "HCMI-CMDC"}, "samples": [{"sample_type": "FFPE Scrolls"}]}], "file_name": "HCMI-CMDC.170d43f5-1b2c-4a88-9506-8811aa01e9a3.arriba.rna_fusion.bedpe"}, {"id": "a7e18501-c875-4085-a5bc-5147d24f4d41", "cases": [{"project": {"project_id": "HCMI-CMDC"}, "samples": [{"sample_type": "Next Generation Cancer Model"}]}], "file_name": "5c5ae585-fe9d-4929-933b-a6500a88c862.methylation_array.sesame.level3betas.txt"}, {"id": "06fb0d05-a50e-41d9-96f6-18e0967fa17b", "cases": [{"project": {"project_id": "HCMI-CMDC"}, "samples": [{"sample_type": "Next Generation Cancer Model"}]}], "file_name": "a43fb654-fef2-43c6-860c-43689d1a4df9_wxs_gdc_realn.bam"}, {"id": "f5b1dfe7-aa82-4743-93fe-3f7c831df706", "cases": [{"project": {"project_id": "HCMI-CMDC"}, "samples": [{"sample_type": "FFPE Scrolls"}, {"sample_type": "FFPE Scrolls"}]}], "file_name": "e2f7553d-8cc7-4b73-9618-ec4f7b246ad9.wxs.MuSE.aliquot.maf.gz"}, {"id": "248e6418-154a-4b23-aa48-6c8eaef56828", "cases": [{"project": {"project_id": "HCMI-CMDC"}, "samples": [{"sample_type": "FFPE Scrolls"}]}], "file_name": "b54e844d-ef9f-42b5-9e74-da77326617c7.rna_seq.genomic.gdc_realn.bam"}, {"id": "bf7382dd-d0ad-4978-8926-c6b45e80f21e", "cases": [{"project": {"project_id": "HCMI-CMDC"}, "samples": [{"sample_type": "FFPE Scrolls"}]}], "file_name": "b54e844d-ef9f-42b5-9e74-da77326617c7.rna_seq.star_splice_junctions.tsv.gz"}, {"id": "654e7b5a-cff9-47c6-9362-89acf42061b9", "cases": [{"project": {"project_id": "HCMI-CMDC"}, "samples": [{"sample_type": "FFPE Scrolls"}, {"sample_type": "FFPE Scrolls"}]}], "file_name": "1289b406-41ff-445e-93c4-075d0a2edb25.wgs.CaVEMan.raw_somatic_mutation.vcf.gz"}, {"id": "785d115b-7f45-4c2a-a499-71f883bf2fcd", "cases": [{"project": {"project_id": "HCMI-CMDC"}, "samples": [{"sample_type": "FFPE Scrolls"}, {"sample_type": "FFPE Scrolls"}]}], "file_name": "dcb465ba-882e-459e-8889-e812b0409b36.wxs.MuTect2.aliquot.maf.gz"}, {"id": "1f7c8a8b-d67d-43bb-ba41-6c54bb0b0faf", "cases": [{"project": {"project_id": "HCMI-CMDC"}, "samples": [{"sample_type": "FFPE Scrolls"}, {"sample_type": "Next Generation Cancer Model"}]}], "file_name": "HCMI_CMDC.565ec49d-85c1-4e10-90d4-e1724e7fd31f.wxs.MuSE.somatic_annotation.vcf.gz"}, {"id": "81c5caf1-ae78-479d-b05c-86b6180053d7", "cases": [{"project": {"project_id": "HCMI-CMDC"}, "samples": [{"sample_type": "FFPE Scrolls"}]}], "file_name": "HCMI-CMDC.bc8b7306-5dc1-4805-a115-4117c75013b6.star_fusion.rna_fusion.bedpe"}, {"id": "c4fd738a-3188-469a-a470-df757f148fc9", "cases": [{"project": {"project_id": "HCMI-CMDC"}, "samples": [{"sample_type": "FFPE Scrolls"}]}], "file_name": "HCM-STAN-0846-C20-01D-04D-A937-36.WholeGenome.RP-1765.bam"}, {"id": "a1956e3d-0d1d-4cfe-b85c-174e0fa644b1", "cases": [{"project": {"project_id": "HCMI-CMDC"}, "samples": [{"sample_type": "FFPE Scrolls"}, {"sample_type": "FFPE Scrolls"}]}], "file_name": "8cdd8d50-3495-4017-b2de-4cd58b2bb5ed.wxs.aliquot_ensemble_masked.maf.gz"}, {"id": "95ea0223-d024-4ea9-a2ca-df4c986b2a8d", "cases": [{"project": {"project_id": "HCMI-CMDC"}, "samples": [{"sample_type": "FFPE Scrolls"}, {"sample_type": "Next Generation Cancer Model"}]}], "file_name": "HCMI_CMDC.b51b1c61-1454-4161-a0d9-3e4745a4bb68.wxs.MuTect2.somatic_annotation.vcf.gz"}, {"id": "e73d818e-32eb-4601-b8d8-da8db36aacf6", "cases": [{"project": {"project_id": "HCMI-CMDC"}, "samples": [{"sample_type": "FFPE Scrolls"}, {"sample_type": "Next Generation Cancer Model"}]}], "file_name": "54e48529-7cd2-460b-a7db-495d99598542.wgs.CaVEMan.raw_somatic_mutation.vcf.gz"}, {"id": "25eef447-b743-4c47-a568-949ce52caab5", "cases": [{"project": {"project_id": "HCMI-CMDC"}, "samples": [{"sample_type": "Next Generation Cancer Model"}]}], "file_name": "5c5ae585-fe9d-4929-933b-a6500a88c862_noid_Red.idat"}, {"id": "be23fdf5-ee25-4e3c-8dee-84ee03ce60d5", "cases": [{"project": {"project_id": "HCMI-CMDC"}, "samples": [{"sample_type": "FFPE Scrolls"}]}], "file_name": "HCMI-CMDC.170d43f5-1b2c-4a88-9506-8811aa01e9a3.arriba.rna_fusion.tsv"}, {"id": "a16c0eb0-860c-4a42-9139-10b7efddb5f3", "cases": [{"project": {"project_id": "HCMI-CMDC"}, "samples": [{"sample_type": "FFPE Scrolls"}]}], "file_name": "237ac27c-815d-48b1-a35a-b73fa890d1cf_mirnaseq_gdc_realn.bam"}, {"id": "feaa6e64-5f11-430a-a634-056db0bb0846", "cases": [{"project": {"project_id": "HCMI-CMDC"}, "samples": [{"sample_type": "FFPE Scrolls"}, {"sample_type": "Next Generation Cancer Model"}]}], "file_name": "HCMI-CMDC.34348785-bed6-457e-82ad-4d2f31395f45.wxs.varscan2.raw_somatic_mutation.vcf.gz"}, {"id": "65864685-7533-4cbd-bea1-8e53b226cac1", "cases": [{"project": {"project_id": "HCMI-CMDC"}, "samples": [{"sample_type": "FFPE Scrolls"}]}], "file_name": "HCMI-CMDC.bc8b7306-5dc1-4805-a115-4117c75013b6.star_fusion.rna_fusion.tsv"}, {"id": "926c848d-abb4-4554-bd73-c9aaf1a3c665", "cases": [{"project": {"project_id": "HCMI-CMDC"}, "samples": [{"sample_type": "FFPE Scrolls"}, {"sample_type": "Next Generation Cancer Model"}]}], "file_name": "45227a66-f19b-495f-bdb0-4f5527e2722b.wxs.MuSE.aliquot.maf.gz"}, {"id": "8673b4fa-26f8-441b-93ab-5aea6b8b377a", "cases": [{"project": {"project_id": "HCMI-CMDC"}, "samples": [{"sample_type": "Next Generation Cancer Model"}]}], "file_name": "2aab05fb-874d-487f-91c8-08b590753414.rna_seq.augmented_star_gene_counts.tsv"}, {"id": "d8d462ae-3cce-4a1d-b77f-a2c5b587b2bc", "cases": [{"project": {"project_id": "HCMI-CMDC"}, "samples": [{"sample_type": "FFPE Scrolls"}]}], "file_name": "HCM-STAN-0846-C20-11D-S2-HE.D6EAFD6B-C268-4C95-9D38-066FCE83D9D7.svs"}, {"id": "520099f5-393b-4f58-943d-e1c9f7aad846", "cases": [{"project": {"project_id": "HCMI-CMDC"}, "samples": [{"sample_type": "FFPE Scrolls"}, {"sample_type": "Next Generation Cancer Model"}]}], "file_name": "e24df453-7cf2-49bc-9964-dafef22f5bfb.wxs.aliquot_ensemble_masked.maf.gz"}, {"id": "e568c0fc-60ed-41a4-b3b2-a6a1e44a214e", "cases": [{"project": {"project_id": "HCMI-CMDC"}, "samples": [{"sample_type": "FFPE Scrolls"}, {"sample_type": "FFPE Scrolls"}]}], "file_name": "24c2e568-1daa-479d-a3fa-c28f5a604ebe.wgs.BRASS.rerun_structural_variation.bedpe.gz"}, {"id": "9a37e2a5-e495-468e-a923-e02fed43b034", "cases": [{"project": {"project_id": "HCMI-CMDC"}, "samples": [{"sample_type": "Next Generation Cancer Model"}]}], "file_name": "2aab05fb-874d-487f-91c8-08b590753414.rna_seq.genomic.gdc_realn.bam"}, {"id": "b2584e7c-a2bc-407f-8c4c-0f54df4a11db", "cases": [{"project": {"project_id": "HCMI-CMDC"}, "samples": [{"sample_type": "FFPE Scrolls"}, {"sample_type": "Next Generation Cancer Model"}]}], "file_name": "c8336d44-0a9b-4ec6-a9dc-90ebb0a4ea12.wgs.BRASS.rerun_structural_variation.bedpe.gz"}, {"id": "6f9406bc-912b-4030-8ccf-d476777f047d", "cases": [{"project": {"project_id": "HCMI-CMDC"}, "samples": [{"sample_type": "Next Generation Cancer Model"}]}], "file_name": "HCMI-CMDC.3a4e45b8-0822-4b9c-990a-fe1d217d8e40.star_fusion.rna_fusion.tsv"}, {"id": "c4afedd6-c58e-48b8-9387-3737b42a38ca", "cases": [{"project": {"project_id": "HCMI-CMDC"}, "samples": [{"sample_type": "FFPE Scrolls"}]}], "file_name": "d47035d4-1d41-4ce6-844b-5acb049931f3_noid_Red.idat"}, {"id": "8fcc8d88-4288-47e4-8977-c6b6908eab62", "cases": [{"project": {"project_id": "HCMI-CMDC"}, "samples": [{"sample_type": "FFPE Scrolls"}, {"sample_type": "FFPE Scrolls"}]}], "file_name": "HCMI-CMDC.29a2af70-cba7-4a84-8233-f2ea3ab5746d.wgs.varscan2.raw_somatic_mutation.vcf.gz"}, {"id": "bad6b49e-e75b-48b0-a2f7-9ed451032958", "cases": [{"project": {"project_id": "HCMI-CMDC"}, "samples": [{"sample_type": "FFPE Scrolls"}, {"sample_type": "FFPE Scrolls"}]}], "file_name": "HCMI_CMDC.6bb93fef-1ca0-43ea-bfe3-925c31aeee6a.wxs.VarScan2.somatic_annotation.vcf.gz"}, {"id": "2f18e1a6-53f0-4fc8-b583-51a50b6d8013", "cases": [{"project": {"project_id": "HCMI-CMDC"}, "samples": [{"sample_type": "FFPE Scrolls"}]}], "file_name": "b7912484-62e7-4602-838d-9f7ec6a2cf24.mirnaseq.isoforms.quantification.txt"}, {"id": "7999a901-b7cd-40a4-a72c-63d5b5e5f87e", "cases": [{"project": {"project_id": "HCMI-CMDC"}, "samples": [{"sample_type": "Primary Tumor"}]}], "file_name": "dcf26297-27b0-430d-ae51-3a8b597538e7.methylation_array.sesame.level3betas.txt"}, {"id": "219a3993-2b5a-48ce-a9ca-2bd61d155f3b", "cases": [{"project": {"project_id": "HCMI-CMDC"}, "samples": [{"sample_type": "Primary Tumor"}]}], "file_name": "dcd92f62-bed1-4718-a918-6eda2855366a.rna_seq.chimeric.gdc_realn.bam"}, {"id": "06512803-9faf-414e-9b9f-4bad2d42e58b", "cases": [{"project": {"project_id": "HCMI-CMDC"}, "samples": [{"sample_type": "Primary Tumor"}]}], "file_name": "HCM-EXPT-1227-C18-01A-01D-A883-36.WholeGenome.RP-2540.bam"}, {"id": "4f2b4d29-4883-4737-a06f-9a0052a64b37", "cases": [{"project": {"project_id": "HCMI-CMDC"}, "samples": [{"sample_type": "Primary Tumor"}]}], "file_name": "37eb442d-6775-469b-9fa3-568c67f5064d_wxs_gdc_realn.bam"}, {"id": "70f17418-6373-4928-ac14-64c61fa0650a", "cases": [{"project": {"project_id": "HCMI-CMDC"}, "samples": [{"sample_type": "Primary Tumor"}]}], "file_name": "dcd92f62-bed1-4718-a918-6eda2855366a.rna_seq.augmented_star_gene_counts.tsv"}, {"id": "1057c760-8e90-4eb1-b6cd-4088b5917341", "cases": [{"project": {"project_id": "HCMI-CMDC"}, "samples": [{"sample_type": "Primary Tumor"}]}], "file_name": "HCMI-CMDC.42214592-3a52-4ee4-aced-fb3071962ed4.star_fusion.rna_fusion.tsv"}, {"id": "524252c8-72af-4717-832d-62926897c157", "cases": [{"project": {"project_id": "HCMI-CMDC"}, "samples": [{"sample_type": "Primary Tumor"}]}], "file_name": "HCMI-CMDC.e3e3f810-cd31-492d-8751-d23177c14722.arriba.rna_fusion.tsv"}, {"id": "f79be8f7-d7a5-4504-9261-96c713794436", "cases": [{"project": {"project_id": "HCMI-CMDC"}, "samples": [{"sample_type": "Primary Tumor"}]}], "file_name": "dcf26297-27b0-430d-ae51-3a8b597538e7_noid_Grn.idat"}, {"id": "56e6f1dd-b78e-4320-9952-fa9fe3856450", "cases": [{"project": {"project_id": "HCMI-CMDC"}, "samples": [{"sample_type": "Primary Tumor"}]}], "file_name": "dcd92f62-bed1-4718-a918-6eda2855366a.rna_seq.star_splice_junctions.tsv.gz"}, {"id": "6861f9ac-e60e-4ae0-a56d-7e1b42044c50", "cases": [{"project": {"project_id": "HCMI-CMDC"}}], "file_name": "HCM-EXPT-1227-C18.json"}, {"id": "ba999fcd-7f73-452a-9368-45a463a45d38", "cases": [{"project": {"project_id": "HCMI-CMDC"}, "samples": [{"sample_type": "Primary Tumor"}]}], "file_name": "HCMI-CMDC.42214592-3a52-4ee4-aced-fb3071962ed4.star_fusion.rna_fusion.bedpe"}, {"id": "d1b5d83f-c89c-48f1-993d-f74eea44a9a4", "cases": [{"project": {"project_id": "HCMI-CMDC"}, "samples": [{"sample_type": "Primary Tumor"}]}], "file_name": "dcf26297-27b0-430d-ae51-3a8b597538e7_noid_Red.idat"}, {"id": "be6db99b-57f2-4694-9a56-ac3722aab8ec", "cases": [{"project": {"project_id": "HCMI-CMDC"}, "samples": [{"sample_type": "Primary Tumor"}]}], "file_name": "dcd92f62-bed1-4718-a918-6eda2855366a.rna_seq.transcriptome.gdc_realn.bam"}, {"id": "83aee735-c32b-456f-a5c7-7c66d25afbf1", "cases": [{"project": {"project_id": "HCMI-CMDC"}, "samples": [{"sample_type": "Primary Tumor"}]}], "file_name": "dcd92f62-bed1-4718-a918-6eda2855366a.rna_seq.genomic.gdc_realn.bam"}, {"id": "684537e3-d651-45e4-b976-d2f39b33ca66", "cases": [{"project": {"project_id": "HCMI-CMDC"}, "samples": [{"sample_type": "Primary Tumor"}]}], "file_name": "HCMI-CMDC.e3e3f810-cd31-492d-8751-d23177c14722.arriba.rna_fusion.bedpe"}, {"id": "2071ad6d-e69c-4df8-9690-9419d9d6f098", "cases": [{"project": {"project_id": "HCMI-CMDC"}, "samples": [{"sample_type": "Primary Tumor"}]}], "file_name": "HCM-EXPT-0980-C50-01A-11D-A883-36.WholeGenome.RP-2540.bam"}, {"id": "16b2364f-115a-4edd-9fe2-84a2cd143e4b", "cases": [{"project": {"project_id": "HCMI-CMDC"}, "samples": [{"sample_type": "Primary Tumor"}]}], "file_name": "87ebb940-db9d-45f4-abe6-a2b6bb976034.rna_seq.star_splice_junctions.tsv.gz"}, {"id": "34320d4c-6138-4748-8ce5-ad0b5544583a", "cases": [{"project": {"project_id": "HCMI-CMDC"}, "samples": [{"sample_type": "Primary Tumor"}]}], "file_name": "bd69b3ed-a00b-4779-85c8-4318fdc838d2_noid_Grn.idat"}, {"id": "4edb2158-eb4f-4cc9-9949-bc5e658b3911", "cases": [{"project": {"project_id": "HCMI-CMDC"}, "samples": [{"sample_type": "Primary Tumor"}]}], "file_name": "bd69b3ed-a00b-4779-85c8-4318fdc838d2.methylation_array.sesame.level3betas.txt"}, {"id": "8a0f2d50-b9aa-4dc6-8f66-de7f3d56dd0c", "cases": [{"project": {"project_id": "HCMI-CMDC"}, "samples": [{"sample_type": "Primary Tumor"}]}], "file_name": "87ebb940-db9d-45f4-abe6-a2b6bb976034.rna_seq.transcriptome.gdc_realn.bam"}, {"id": "611cf452-0925-4a91-b695-559c1df08a36", "cases": [{"project": {"project_id": "HCMI-CMDC"}, "samples": [{"sample_type": "Primary Tumor"}]}], "file_name": "HCMI-CMDC.3170ecf6-df5a-475c-83d8-d8819d640fb5.star_fusion.rna_fusion.bedpe"}, {"id": "1c90ce03-095b-4535-8de2-da4c479da5ee", "cases": [{"project": {"project_id": "HCMI-CMDC"}, "samples": [{"sample_type": "Primary Tumor"}]}], "file_name": "HCMI-CMDC.4f2d4f19-9e35-4f8d-a07a-6acb5150f949.arriba.rna_fusion.tsv"}, {"id": "35ff7b83-bc94-4de7-a58e-2378fefd80bb", "cases": [{"project": {"project_id": "HCMI-CMDC"}, "samples": [{"sample_type": "Primary Tumor"}]}], "file_name": "3020fc70-65f9-4bc0-b3f3-61141fa429dd_wxs_gdc_realn.bam"}, {"id": "31bff97b-18be-4943-83a1-5b191b6f1618", "cases": [{"project": {"project_id": "HCMI-CMDC"}, "samples": [{"sample_type": "Primary Tumor"}]}], "file_name": "HCMI-CMDC.4f2d4f19-9e35-4f8d-a07a-6acb5150f949.arriba.rna_fusion.bedpe"}, {"id": "6f304ec1-d4ad-4cfe-80a2-2036b3871ae6", "cases": [{"project": {"project_id": "HCMI-CMDC"}, "samples": [{"sample_type": "Primary Tumor"}]}], "file_name": "87ebb940-db9d-45f4-abe6-a2b6bb976034.rna_seq.augmented_star_gene_counts.tsv"}, {"id": "0e00d82a-5122-4238-9839-7204f92dd472", "cases": [{"project": {"project_id": "HCMI-CMDC"}}], "file_name": "HCM-EXPT-0980-C50.json"}, {"id": "2dba1def-1fcb-4d27-92d7-827bd66f2457", "cases": [{"project": {"project_id": "HCMI-CMDC"}, "samples": [{"sample_type": "Primary Tumor"}]}], "file_name": "87ebb940-db9d-45f4-abe6-a2b6bb976034.rna_seq.chimeric.gdc_realn.bam"}, {"id": "b66ee66f-acd9-4301-b4fb-69c42a8873e5", "cases": [{"project": {"project_id": "HCMI-CMDC"}, "samples": [{"sample_type": "Primary Tumor"}]}], "file_name": "87ebb940-db9d-45f4-abe6-a2b6bb976034.rna_seq.genomic.gdc_realn.bam"}, {"id": "96c23938-ec54-4425-8e88-3b7a1e8833e6", "cases": [{"project": {"project_id": "HCMI-CMDC"}, "samples": [{"sample_type": "Primary Tumor"}]}], "file_name": "HCM-EXPT-0980-C50-01A-01-S1-HE.F751CDBE-8CE8-4509-A2E3-56C7DF5FD61E.svs"}, {"id": "4916758e-8e58-4d86-be21-4fb501c10025", "cases": [{"project": {"project_id": "HCMI-CMDC"}, "samples": [{"sample_type": "Primary Tumor"}]}], "file_name": "bd69b3ed-a00b-4779-85c8-4318fdc838d2_noid_Red.idat"}, {"id": "19faee31-40b1-462c-91ad-e77adee57d25", "cases": [{"project": {"project_id": "HCMI-CMDC"}, "samples": [{"sample_type": "Primary Tumor"}]}], "file_name": "HCM-EXPT-0980-C50-01A-01-S2-HE.49545847-91E5-4FEF-AEBE-7E524249A8E4.svs"}, {"id": "d3ace80b-94a8-40fc-ad88-10794a10e0ae", "cases": [{"project": {"project_id": "HCMI-CMDC"}, "samples": [{"sample_type": "Primary Tumor"}]}], "file_name": "HCMI-CMDC.3170ecf6-df5a-475c-83d8-d8819d640fb5.star_fusion.rna_fusion.tsv"}, {"id": "83b59bf2-7b18-450b-8151-bd11a0cf7cef", "cases": [{"project": {"project_id": "HCMI-CMDC"}, "samples": [{"sample_type": "Solid Tissue Normal"}, {"sample_type": "Next Generation Cancer Model"}]}], "file_name": "49a0444d-85ba-43a7-8a46-557cd2a40177.wgs.CaVEMan.raw_somatic_mutation.vcf.gz"}, {"id": "8ee2bde9-1201-45ec-8b5f-8906cb4f3910", "cases": [{"project": {"project_id": "HCMI-CMDC"}, "samples": [{"sample_type": "Solid Tissue Normal"}, {"sample_type": "Primary Tumor"}]}], "file_name": "8c77ebda-5734-4cda-a43f-d5a8383b1835.wxs.MuTect2.aliquot.maf.gz"}, {"id": "67625366-dad9-4eed-abc8-7764075c83d0", "cases": [{"project": {"project_id": "HCMI-CMDC"}, "samples": [{"sample_type": "Solid Tissue Normal"}, {"sample_type": "Next Generation Cancer Model"}]}], "file_name": "1a8e504c-fafe-4bad-a370-5df773e3fa61.wxs.aliquot_ensemble_masked.maf.gz"}, {"id": "af56dcbc-11ed-4672-a74c-f7c58dee3608", "cases": [{"project": {"project_id": "HCMI-CMDC"}, "samples": [{"sample_type": "Solid Tissue Normal"}, {"sample_type": "Primary Tumor"}]}], "file_name": "HCMI_CMDC.4dd3e723-b296-4a12-8e32-0d8b703a55c9.wxs.VarScan2.somatic_annotation.vcf.gz"}, {"id": "e0037b7b-2122-4859-ad32-398852a3d4a5", "cases": [{"project": {"project_id": "HCMI-CMDC"}, "samples": [{"sample_type": "Next Generation Cancer Model"}]}], "file_name": "89b086d1-2d13-4939-a102-f5c88c44d80c.rna_seq.augmented_star_gene_counts.tsv"}, {"id": "aa173955-b66c-4057-a5b1-8d6e8789219b", "cases": [{"project": {"project_id": "HCMI-CMDC"}, "samples": [{"sample_type": "Solid Tissue Normal"}, {"sample_type": "Next Generation Cancer Model"}]}], "file_name": "948de930-6057-425e-a779-90e970336edc.wxs.MuSE.aliquot.maf.gz"}, {"id": "4dbafbe1-4db1-41dc-94c2-29384bb766ce", "cases": [{"project": {"project_id": "HCMI-CMDC"}, "samples": [{"sample_type": "Solid Tissue Normal"}, {"sample_type": "Primary Tumor"}]}], "file_name": "HCMI_CMDC.377f2622-e4f8-4aa2-ac3a-33f1270cd326.wxs.MuSE.somatic_annotation.vcf.gz"}, {"id": "50d5e3ee-9a99-4821-8429-5887788d8089", "cases": [{"project": {"project_id": "HCMI-CMDC"}, "samples": [{"sample_type": "Next Generation Cancer Model"}]}], "file_name": "89b086d1-2d13-4939-a102-f5c88c44d80c.rna_seq.genomic.gdc_realn.bam"}, {"id": "1a4556f0-8745-4677-a5be-ba521e695365", "cases": [{"project": {"project_id": "HCMI-CMDC"}, "samples": [{"sample_type": "Primary Tumor"}]}], "file_name": "63af2405-350e-4304-af91-dd95e269b38d.rna_seq.genomic.gdc_realn.bam"}, {"id": "990f378e-7075-4ec8-b20e-1937ecfcb48a", "cases": [{"project": {"project_id": "HCMI-CMDC"}, "samples": [{"sample_type": "Next Generation Cancer Model"}]}], "file_name": "89b086d1-2d13-4939-a102-f5c88c44d80c.rna_seq.transcriptome.gdc_realn.bam"}], "pagination": {"count": 100, "total": 1271450, "size": 100, "from": 0, "sort": "", "page": 1, "pages": 12715}}, "warnings": {}}